{
    "tasks": [
        {
            "answers": [],
            "name": "Read Fox Story",
            "success": false,
            "target": 0,
            "coins": 0,
            "page": 9,
            "img": "/media/tales/tale1/1.png"
        },
        {
            "answers": [
                {
                    "name": "Какими домашними делами каждый день занималась мама лисенка?",
                    "answer": null,
                    "text_answer": null
                },
                {
                    "name": "Куда уехали родители Фоксика?",
                    "answer": null,
                    "text_answer": null
                },
                {
                    "name": "Кто остался присматривать за Фоксиком?",
                    "answer": null,
                    "text_answer": null
                },
                {
                    "name": "Как распределили дела в огороде друзья между собой?",
                    "answer": null,
                    "text_answer": null
                },
                {
                    "name": "Перечисли все дела, которые выполнил Фоксик вместе с друзьями.",
                    "answer": null,
                    "text_answer": null
                }
            ],
            "name": "Fox - Story",
            "success": false,
            "target": 1,
            "coins": 0,
            "page": 10,
            "img": "/media/tales/tale1/2.png"
        }
        
    ],
    "name": "Подарки для самых любимых",
    "pages": 1,
    "number": 5,
    "emoji": null,
    "cost": 5000,
    "status": "not_available"
}