<svg width="17" height="15" viewBox="0 0 17 15" fill="none" xmlns="http://www.w3.org/2000/svg">
<circle cx="6.74312" cy="6.85213" r="5.66402" stroke="#2B2A29" stroke-width="0.5"/>
<line x1="11.0839" y1="10.632" x2="16.1583" y2="14.8069" stroke="#2B2A29" stroke-width="0.5"/>
</svg>
