<?xml version="1.0" encoding="UTF-8" standalone="no"?>
<svg
   xmlns:dc="http://purl.org/dc/elements/1.1/"
   xmlns:cc="http://creativecommons.org/ns#"
   xmlns:rdf="http://www.w3.org/1999/02/22-rdf-syntax-ns#"
   xmlns:svg="http://www.w3.org/2000/svg"
   xmlns="http://www.w3.org/2000/svg"
   xmlns:sodipodi="http://sodipodi.sourceforge.net/DTD/sodipodi-0.dtd"
   xmlns:inkscape="http://www.inkscape.org/namespaces/inkscape"
   viewBox="0 0 41.37 41.37"
   version="1.1"
   id="svg20"
   sodipodi:docname="book-icon.svg"
   inkscape:version="1.0.1 (1.0.1+r74)">
  <metadata
     id="metadata24">
    <rdf:RDF>
      <cc:Work
         rdf:about="">
        <dc:format>image/svg+xml</dc:format>
        <dc:type
           rdf:resource="http://purl.org/dc/dcmitype/StillImage" />
      </cc:Work>
    </rdf:RDF>
  </metadata>
  <sodipodi:namedview
     pagecolor="#ffffff"
     bordercolor="#666666"
     borderopacity="1"
     objecttolerance="10"
     gridtolerance="10"
     guidetolerance="10"
     inkscape:pageopacity="0"
     inkscape:pageshadow="2"
     inkscape:window-width="1920"
     inkscape:window-height="1055"
     id="namedview22"
     showgrid="false"
     inkscape:zoom="19.531062"
     inkscape:cx="21.248205"
     inkscape:cy="20.684999"
     inkscape:window-x="0"
     inkscape:window-y="0"
     inkscape:window-maximized="1"
     inkscape:current-layer="svg20" />
  <defs
     id="defs4">
    <style
       id="style2">.cls-1{fill:#2b2a29;opacity:0.1;}.cls-2{fill:#fff;}</style>
  </defs>
  <title
     id="title6">Ресурс 4</title>
  <g
     id="Слой_2"
     data-name="Слой 2">
    <g
       id="widjet">
      <path
         class="cls-2"
         d="M27.51,17.62a14.31,14.31,0,0,1,3.07.32V16.07a16.92,16.92,0,0,0-3.07-.29,14.13,14.13,0,0,0-5.52,1v2A11.42,11.42,0,0,1,27.51,17.62Z"
         id="path10" />
      <path
         class="cls-2"
         d="M22,20.06v2a11.31,11.31,0,0,1,5.52-1.22,14.31,14.31,0,0,1,3.07.32V19.33A16.92,16.92,0,0,0,27.51,19,14.31,14.31,0,0,0,22,20.06Z"
         id="path12" />
      <path
         class="cls-2"
         d="M27.51,22.32a13.94,13.94,0,0,0-5.52,1v2a11.42,11.42,0,0,1,5.52-1.21,14.31,14.31,0,0,1,3.07.32V22.61A16.07,16.07,0,0,0,27.51,22.32Z"
         id="path14" />
      <path
         class="cls-2"
         d="M31.81,10.87a14.53,14.53,0,0,0-4.3-.62,11.42,11.42,0,0,0-6.75,1.84A11.42,11.42,0,0,0,14,10.25a11.42,11.42,0,0,0-6.75,1.84v18a.67.67,0,0,0,.61.62c.13,0,.19-.06.31-.06A15,15,0,0,1,14,29.28a11.42,11.42,0,0,1,6.75,1.84,14.7,14.7,0,0,1,6.75-1.84,12.48,12.48,0,0,1,5.83,1.28.49.49,0,0,0,.31.07.67.67,0,0,0,.61-.62V12.09A8.27,8.27,0,0,0,31.81,10.87Zm0,16.56a14.61,14.61,0,0,0-4.3-.61,14.82,14.82,0,0,0-6.75,1.84A14.82,14.82,0,0,0,14,26.82a14.61,14.61,0,0,0-4.3.61V13.32a14.29,14.29,0,0,1,4.3-.61,14.82,14.82,0,0,1,6.75,1.84,14.82,14.82,0,0,1,6.75-1.84,14.29,14.29,0,0,1,4.3.61Z"
         id="path16" />
    </g>
  </g>
</svg>
