<?xml version="1.0" encoding="UTF-8" standalone="no"?>
<svg
   xmlns:dc="http://purl.org/dc/elements/1.1/"
   xmlns:cc="http://creativecommons.org/ns#"
   xmlns:rdf="http://www.w3.org/1999/02/22-rdf-syntax-ns#"
   xmlns:svg="http://www.w3.org/2000/svg"
   xmlns="http://www.w3.org/2000/svg"
   xmlns:sodipodi="http://sodipodi.sourceforge.net/DTD/sodipodi-0.dtd"
   xmlns:inkscape="http://www.inkscape.org/namespaces/inkscape"
   viewBox="0 0 49.93 49.93"
   version="1.1"
   id="svg16"
   sodipodi:docname="send-to-menthor.svg"
   inkscape:version="1.0.1 (1.0.1+r74)">
  <metadata
     id="metadata20">
    <rdf:RDF>
      <cc:Work
         rdf:about="">
        <dc:format>image/svg+xml</dc:format>
        <dc:type
           rdf:resource="http://purl.org/dc/dcmitype/StillImage" />
      </cc:Work>
    </rdf:RDF>
  </metadata>
  <sodipodi:namedview
     pagecolor="#ffffff"
     bordercolor="#666666"
     borderopacity="1"
     objecttolerance="10"
     gridtolerance="10"
     guidetolerance="10"
     inkscape:pageopacity="0"
     inkscape:pageshadow="2"
     inkscape:window-width="1920"
     inkscape:window-height="1055"
     id="namedview18"
     showgrid="false"
     inkscape:zoom="11.442866"
     inkscape:cx="-4.4908372"
     inkscape:cy="30.000744"
     inkscape:window-x="0"
     inkscape:window-y="0"
     inkscape:window-maximized="1"
     inkscape:current-layer="svg16"
     inkscape:document-rotation="0" />
  <defs
     id="defs4">
    <style
       id="style2">.cls-1{fill:#d9d9d9;}.cls-2{fill:#fefefe;}</style>
  </defs>
  <title
     id="title6">Ресурс 57</title>
  <g
     id="Слой_2"
     data-name="Слой 2"
     style="fill:#ffffff">
    <g
       id="widjet"
       style="fill:#ffffff">
      <path
         class="cls-1"
         d="M35.2,14.73H13.48a2.72,2.72,0,0,0-2.71,2.71V33.73a2.72,2.72,0,0,0,2.71,2.71H25.7V33.73H13.48V20.16l10.86,6.78L35.2,20.16v6.78h2.71v-9.5A2.72,2.72,0,0,0,35.2,14.73Zm-10.86,9.5L13.48,17.44H35.2Zm9.5,5.43,5.43,5.43-5.43,5.42V36.44H28.41V33.73h5.43Z"
         id="path12"
         style="fill:#ffffff" />
    </g>
  </g>
</svg>
